<svg version="1.1" class="check center" xmlns="http://www.w3.org/2000/svg" xmlns:xlink="http://www.w3.org/1999/xlink" x="0px" y="0px"
	 viewBox="0 0 13.1 9.8" enable-background="new 0 0 13.1 9.8" xml:space="preserve">
<g class="left">
	<polygon class="color-theme--fill" points="5.2,9.8 13.1,1.9 11.2,0 5.2,6 "/>
</g>
<g class="right">
	<polygon class="color-theme--fill" points="5.2,6 1.9,2.7 0,4.6 5.2,9.8 "/>
</g>
</svg>
